New invocation

Seconds = 18 Nano = 464738500 
Seconds = 18 Nano = 661151600 
Seconds = 18 Nano = 234232700 
Seconds = 18 Nano = 164698300 
Seconds = 18 Nano = 200954700 
Seconds = 18 Nano = 230977600 
Seconds = 18 Nano = 207249600 
Seconds = 18 Nano = 151332000 
Seconds = 18 Nano = 401937400 
Seconds = 18 Nano = 421168600 
New invocation

Seconds = 18 Nano = 622299400 
Seconds = 19 Nano = 28607500 
Seconds = 18 Nano = 307116500 
Seconds = 18 Nano = 195399500 
Seconds = 18 Nano = 293665900 
Seconds = 18 Nano = 401088900 
Seconds = 18 Nano = 82416000 
Seconds = 18 Nano = 74420500 
Seconds = 18 Nano = 27113200 
Seconds = 18 Nano = 148377800 
New invocation

Seconds = 18 Nano = 642514600 
Seconds = 18 Nano = 996309000 
Seconds = 18 Nano = 441844200 
Seconds = 18 Nano = 305263100 
Seconds = 18 Nano = 420404100 
Seconds = 18 Nano = 260523800 
Seconds = 18 Nano = 340722400 
Seconds = 18 Nano = 251116000 
Seconds = 18 Nano = 260910400 
Seconds = 18 Nano = 295285500 
New invocation

Seconds = 18 Nano = 934579200 
Seconds = 18 Nano = 651462700 
Seconds = 18 Nano = 160975200 
Seconds = 18 Nano = 29728500 
Seconds = 18 Nano = 83521800 
Seconds = 18 Nano = 220309200 
Seconds = 18 Nano = 53274400 
Seconds = 18 Nano = 268161600 
Seconds = 18 Nano = 163149800 
Seconds = 18 Nano = 127504800 
New invocation

Seconds = 19 Nano = 35862700 
Seconds = 18 Nano = 666853800 
Seconds = 18 Nano = 506608900 
Seconds = 18 Nano = 236081300 
Seconds = 18 Nano = 345623600 
Seconds = 18 Nano = 329114500 
Seconds = 18 Nano = 304337000 
Seconds = 18 Nano = 488090100 
Seconds = 18 Nano = 382744800 
Seconds = 18 Nano = 215101300 
New invocation

Seconds = 18 Nano = 667746700 
Seconds = 18 Nano = 962342900 
Seconds = 18 Nano = 238268100 
Seconds = 18 Nano = 440547700 
Seconds = 18 Nano = 619826600 
Seconds = 18 Nano = 539639700 
Seconds = 18 Nano = 382278900 
Seconds = 18 Nano = 460201500 
Seconds = 18 Nano = 267463800 
Seconds = 18 Nano = 164904000 
New invocation

Seconds = 18 Nano = 568096100 
Seconds = 18 Nano = 998809400 
Seconds = 18 Nano = 444427900 
Seconds = 18 Nano = 247860000 
Seconds = 18 Nano = 345781900 
Seconds = 18 Nano = 390051400 
Seconds = 18 Nano = 394197800 
Seconds = 18 Nano = 350169900 
Seconds = 18 Nano = 286516600 
Seconds = 18 Nano = 422921500 
New invocation

Seconds = 18 Nano = 955004800 
Seconds = 18 Nano = 484240300 
Seconds = 18 Nano = 388865600 
Seconds = 18 Nano = 270748300 
Seconds = 18 Nano = 87341700 
Seconds = 18 Nano = 233550400 
Seconds = 18 Nano = 133407400 
Seconds = 18 Nano = 225742800 
Seconds = 18 Nano = 328103500 
Seconds = 18 Nano = 200138300 
New invocation

Seconds = 18 Nano = 648399800 
Seconds = 18 Nano = 877931600 
Seconds = 18 Nano = 291470600 
Seconds = 18 Nano = 237297200 
Seconds = 18 Nano = 254791900 
Seconds = 18 Nano = 126376300 
Seconds = 18 Nano = 282505800 
Seconds = 18 Nano = 235774300 
Seconds = 18 Nano = 182732400 
Seconds = 18 Nano = 202274500 
New invocation

Seconds = 18 Nano = 999462800 
Seconds = 18 Nano = 856553100 
Seconds = 18 Nano = 366138100 
Seconds = 18 Nano = 351953900 
Seconds = 18 Nano = 153975600 
Seconds = 18 Nano = 117560600 
Seconds = 18 Nano = 386546000 
Seconds = 18 Nano = 240795400 
Seconds = 18 Nano = 158291900 
Seconds = 18 Nano = 179915700 
