New invocation

Seconds = 2 Nano = 246821400 
Seconds = 2 Nano = 172658300 
Seconds = 2 Nano = 432288100 
Seconds = 2 Nano = 447395700 
Seconds = 2 Nano = 409280800 
Seconds = 2 Nano = 280980900 
Seconds = 2 Nano = 241781000 
Seconds = 2 Nano = 240793000 
Seconds = 2 Nano = 199420700 
Seconds = 2 Nano = 275873300 
New invocation

Seconds = 2 Nano = 95904100 
Seconds = 2 Nano = 200705200 
Seconds = 2 Nano = 181318800 
Seconds = 2 Nano = 200318100 
Seconds = 2 Nano = 183980800 
Seconds = 2 Nano = 173075800 
Seconds = 2 Nano = 169946900 
Seconds = 2 Nano = 171524800 
Seconds = 2 Nano = 176007200 
Seconds = 2 Nano = 182137000 
New invocation

Seconds = 2 Nano = 94687500 
Seconds = 2 Nano = 288880100 
Seconds = 2 Nano = 194135300 
Seconds = 2 Nano = 200633200 
Seconds = 2 Nano = 192495200 
Seconds = 2 Nano = 192976300 
Seconds = 2 Nano = 211179400 
Seconds = 2 Nano = 196166500 
Seconds = 2 Nano = 186174000 
Seconds = 2 Nano = 191278200 
New invocation

Seconds = 2 Nano = 728392900 
Seconds = 2 Nano = 155222400 
Seconds = 2 Nano = 134278000 
Seconds = 2 Nano = 137050700 
Seconds = 2 Nano = 128579300 
Seconds = 2 Nano = 137599200 
Seconds = 2 Nano = 160480200 
Seconds = 2 Nano = 160064200 
Seconds = 2 Nano = 130688300 
Seconds = 2 Nano = 139960700 
New invocation

Seconds = 2 Nano = 178776500 
Seconds = 2 Nano = 269603400 
Seconds = 2 Nano = 271005700 
Seconds = 2 Nano = 271328100 
Seconds = 2 Nano = 267169400 
Seconds = 2 Nano = 261607000 
Seconds = 2 Nano = 262320400 
Seconds = 2 Nano = 267791300 
Seconds = 2 Nano = 267300700 
Seconds = 2 Nano = 269436100 
New invocation

Seconds = 2 Nano = 86237600 
Seconds = 2 Nano = 188559300 
Seconds = 2 Nano = 190386400 
Seconds = 2 Nano = 202270900 
Seconds = 2 Nano = 191049300 
Seconds = 2 Nano = 193152400 
Seconds = 2 Nano = 201121500 
Seconds = 2 Nano = 182147600 
Seconds = 2 Nano = 173060000 
Seconds = 2 Nano = 175673700 
New invocation

Seconds = 2 Nano = 105208100 
Seconds = 2 Nano = 194752300 
Seconds = 2 Nano = 201564100 
Seconds = 2 Nano = 197615500 
Seconds = 2 Nano = 174395800 
Seconds = 2 Nano = 217645800 
Seconds = 2 Nano = 218479500 
Seconds = 2 Nano = 182781300 
Seconds = 2 Nano = 191938100 
Seconds = 2 Nano = 177239000 
New invocation

Seconds = 2 Nano = 697732000 
Seconds = 2 Nano = 181913800 
Seconds = 2 Nano = 167872600 
Seconds = 2 Nano = 156292100 
Seconds = 2 Nano = 144218400 
Seconds = 2 Nano = 157505900 
Seconds = 2 Nano = 194689600 
Seconds = 2 Nano = 184751300 
Seconds = 2 Nano = 170634300 
Seconds = 2 Nano = 152737000 
New invocation

Seconds = 2 Nano = 134303900 
Seconds = 2 Nano = 212967900 
Seconds = 2 Nano = 216930600 
Seconds = 2 Nano = 203412200 
Seconds = 2 Nano = 202551100 
Seconds = 2 Nano = 201674000 
Seconds = 2 Nano = 212258100 
Seconds = 2 Nano = 249114900 
Seconds = 2 Nano = 242915100 
Seconds = 2 Nano = 197825100 
New invocation

Seconds = 2 Nano = 53209400 
Seconds = 2 Nano = 234149400 
Seconds = 2 Nano = 257255500 
Seconds = 2 Nano = 255436600 
Seconds = 2 Nano = 257183900 
Seconds = 2 Nano = 245600900 
Seconds = 2 Nano = 236855300 
Seconds = 2 Nano = 237651900 
Seconds = 2 Nano = 243924600 
Seconds = 2 Nano = 284872700 
