New invocation

Seconds = 2 Nano = 911778900 
Seconds = 12 Nano = 660047000 
Seconds = 2 Nano = 444402400 
Seconds = 2 Nano = 541774700 
Seconds = 2 Nano = 477446500 
Seconds = 2 Nano = 430124000 
Seconds = 2 Nano = 430796900 
Seconds = 2 Nano = 430591900 
Seconds = 2 Nano = 451711900 
Seconds = 2 Nano = 425336500 
New invocation

Seconds = 2 Nano = 560607000 
Seconds = 2 Nano = 476591700 
Seconds = 2 Nano = 461794500 
Seconds = 2 Nano = 468408900 
Seconds = 2 Nano = 468491400 
Seconds = 2 Nano = 476375900 
Seconds = 2 Nano = 445944800 
Seconds = 2 Nano = 444289200 
Seconds = 2 Nano = 475028900 
Seconds = 2 Nano = 450804900 
New invocation

Seconds = 2 Nano = 995679000 
Seconds = 2 Nano = 438132800 
Seconds = 2 Nano = 385583300 
Seconds = 2 Nano = 385376000 
Seconds = 6 Nano = 953060200 
Seconds = 2 Nano = 441753900 
Seconds = 2 Nano = 389797600 
Seconds = 2 Nano = 383165500 
Seconds = 2 Nano = 386979000 
Seconds = 2 Nano = 386391700 
New invocation

Seconds = 7 Nano = 607615900 
Seconds = 2 Nano = 515018100 
Seconds = 2 Nano = 407628900 
Seconds = 2 Nano = 407445000 
Seconds = 2 Nano = 431429000 
Seconds = 2 Nano = 427821800 
Seconds = 2 Nano = 418388400 
Seconds = 2 Nano = 417537200 
Seconds = 2 Nano = 409756600 
Seconds = 2 Nano = 428819400 
New invocation

Seconds = 2 Nano = 768929000 
Seconds = 7 Nano = 372659900 
Seconds = 2 Nano = 686877000 
Seconds = 2 Nano = 468174300 
Seconds = 2 Nano = 493508700 
Seconds = 2 Nano = 497500000 
Seconds = 2 Nano = 496180900 
Seconds = 2 Nano = 518739400 
Seconds = 2 Nano = 460246500 
Seconds = 2 Nano = 469522600 
New invocation

Seconds = 2 Nano = 982683200 
Seconds = 2 Nano = 422212400 
Seconds = 2 Nano = 509664900 
Seconds = 2 Nano = 431040300 
Seconds = 2 Nano = 427212900 
Seconds = 2 Nano = 418957800 
Seconds = 2 Nano = 598970400 
Seconds = 2 Nano = 435027300 
Seconds = 2 Nano = 439709400 
Seconds = 2 Nano = 468876000 
New invocation

Seconds = 2 Nano = 934119000 
Seconds = 12 Nano = 552446200 
Seconds = 2 Nano = 466408600 
Seconds = 2 Nano = 453129700 
Seconds = 2 Nano = 560122000 
Seconds = 2 Nano = 540890000 
Seconds = 2 Nano = 480391300 
Seconds = 2 Nano = 502303600 
Seconds = 2 Nano = 483816100 
Seconds = 2 Nano = 539753500 
New invocation

Seconds = 2 Nano = 896754800 
Seconds = 2 Nano = 448816200 
Seconds = 2 Nano = 478548700 
Seconds = 2 Nano = 453674500 
Seconds = 2 Nano = 506976900 
Seconds = 2 Nano = 442073300 
Seconds = 2 Nano = 463018700 
Seconds = 2 Nano = 448515400 
Seconds = 2 Nano = 496621000 
Seconds = 2 Nano = 468193000 
New invocation

Seconds = 2 Nano = 946889900 
Seconds = 6 Nano = 624898100 
Seconds = 2 Nano = 429566600 
Seconds = 2 Nano = 466107000 
Seconds = 2 Nano = 462099400 
Seconds = 2 Nano = 464359000 
Seconds = 2 Nano = 458792100 
Seconds = 2 Nano = 487329800 
Seconds = 2 Nano = 494571100 
Seconds = 2 Nano = 460314000 
New invocation

Seconds = 3 Nano = 145339500 
Seconds = 2 Nano = 534550100 
Seconds = 2 Nano = 472831900 
Seconds = 2 Nano = 467062600 
Seconds = 2 Nano = 545505200 
Seconds = 2 Nano = 820945900 
Seconds = 2 Nano = 495023900 
Seconds = 2 Nano = 583345100 
Seconds = 2 Nano = 695004900 
Seconds = 2 Nano = 478094600 
