New invocation

Seconds = 2 Nano = 417771600 
Seconds = 2 Nano = 446262700 
Seconds = 2 Nano = 444329300 
Seconds = 2 Nano = 453648600 
Seconds = 2 Nano = 445077400 
Seconds = 2 Nano = 444299200 
Seconds = 2 Nano = 477064100 
Seconds = 2 Nano = 492095900 
Seconds = 2 Nano = 444758900 
Seconds = 2 Nano = 451356200 
New invocation

Seconds = 2 Nano = 916978900 
Seconds = 2 Nano = 404190800 
Seconds = 2 Nano = 383696200 
Seconds = 2 Nano = 399746200 
Seconds = 2 Nano = 380698300 
Seconds = 2 Nano = 375567600 
Seconds = 2 Nano = 378899300 
Seconds = 2 Nano = 442642900 
Seconds = 2 Nano = 386994300 
Seconds = 2 Nano = 468852900 
New invocation

Seconds = 2 Nano = 68634500 
Seconds = 2 Nano = 406070700 
Seconds = 2 Nano = 404099400 
Seconds = 2 Nano = 374722300 
Seconds = 2 Nano = 372637800 
Seconds = 2 Nano = 381480600 
Seconds = 2 Nano = 375184600 
Seconds = 2 Nano = 373498500 
Seconds = 2 Nano = 373510700 
Seconds = 2 Nano = 411717100 
New invocation

Seconds = 2 Nano = 781353000 
Seconds = 2 Nano = 382737600 
Seconds = 2 Nano = 387060000 
Seconds = 2 Nano = 379126100 
Seconds = 2 Nano = 374140400 
Seconds = 2 Nano = 375819400 
Seconds = 2 Nano = 382422900 
Seconds = 2 Nano = 381367100 
Seconds = 2 Nano = 389141400 
Seconds = 2 Nano = 381547000 
New invocation

Seconds = 2 Nano = 544679600 
Seconds = 2 Nano = 387490000 
Seconds = 2 Nano = 384332600 
Seconds = 2 Nano = 387677300 
Seconds = 2 Nano = 384587000 
Seconds = 2 Nano = 403472800 
Seconds = 2 Nano = 386594900 
Seconds = 2 Nano = 473853600 
Seconds = 2 Nano = 394364700 
Seconds = 2 Nano = 396782800 
New invocation

Seconds = 1 Nano = 893697900 
Seconds = 2 Nano = 387249500 
Seconds = 2 Nano = 372737200 
Seconds = 2 Nano = 376275300 
Seconds = 2 Nano = 369072600 
Seconds = 2 Nano = 377151200 
Seconds = 2 Nano = 393061700 
Seconds = 2 Nano = 374350200 
Seconds = 2 Nano = 398282000 
Seconds = 2 Nano = 372271200 
New invocation

Seconds = 2 Nano = 803562700 
Seconds = 2 Nano = 372073100 
Seconds = 2 Nano = 370819000 
Seconds = 2 Nano = 374291300 
Seconds = 2 Nano = 397984500 
Seconds = 2 Nano = 379315600 
Seconds = 2 Nano = 443063500 
Seconds = 2 Nano = 384834200 
Seconds = 2 Nano = 371378500 
Seconds = 2 Nano = 374182300 
New invocation

Seconds = 2 Nano = 815781900 
Seconds = 2 Nano = 380677600 
Seconds = 2 Nano = 440891400 
Seconds = 2 Nano = 429608700 
Seconds = 2 Nano = 375763100 
Seconds = 2 Nano = 372071400 
Seconds = 2 Nano = 376098000 
Seconds = 2 Nano = 412304200 
Seconds = 2 Nano = 374522400 
Seconds = 2 Nano = 375519400 
New invocation

Seconds = 2 Nano = 557299500 
Seconds = 2 Nano = 394882300 
Seconds = 2 Nano = 393596200 
Seconds = 2 Nano = 378155000 
Seconds = 2 Nano = 384262600 
Seconds = 2 Nano = 378207100 
Seconds = 2 Nano = 382224600 
Seconds = 2 Nano = 391476500 
Seconds = 2 Nano = 406259900 
Seconds = 2 Nano = 392388500 
New invocation

Seconds = 2 Nano = 881190000 
Seconds = 2 Nano = 396172600 
Seconds = 2 Nano = 455879000 
Seconds = 2 Nano = 457823600 
Seconds = 2 Nano = 469196400 
Seconds = 2 Nano = 479963600 
Seconds = 2 Nano = 424335400 
Seconds = 2 Nano = 420728400 
Seconds = 2 Nano = 509748900 
Seconds = 2 Nano = 400213200 
