CL = 5468900 BENCHMARK = 13656100 TOTAL = 19125000 
CL = 5692900 BENCHMARK = 13903900 TOTAL = 19596800 
CL = 5621500 BENCHMARK = 14032800 TOTAL = 19654300 
CL = 6645800 BENCHMARK = 13513600 TOTAL = 20159400 
CL = 6690600 BENCHMARK = 13917600 TOTAL = 20608200 
CL = 6104800 BENCHMARK = 14357100 TOTAL = 20461900 
CL = 6477000 BENCHMARK = 14837800 TOTAL = 21314800 
CL = 6086700 BENCHMARK = 13908500 TOTAL = 19995200 
CL = 5704500 BENCHMARK = 13674300 TOTAL = 19378800 
CL = 5431200 BENCHMARK = 13413000 TOTAL = 18844200 
CL = 6444300 BENCHMARK = 14016600 TOTAL = 20460900 
CL = 6648800 BENCHMARK = 13459300 TOTAL = 20108100 
CL = 6338000 BENCHMARK = 14327800 TOTAL = 20665800 
CL = 6402300 BENCHMARK = 13669700 TOTAL = 20072000 
CL = 5458900 BENCHMARK = 13665800 TOTAL = 19124700 
CL = 6411800 BENCHMARK = 13925000 TOTAL = 20336800 
CL = 5962000 BENCHMARK = 13915500 TOTAL = 19877500 
CL = 5599700 BENCHMARK = 13331300 TOTAL = 18931000 
CL = 6179500 BENCHMARK = 14011100 TOTAL = 20190600 
CL = 6032000 BENCHMARK = 13769100 TOTAL = 19801100 
CL = 5284200 BENCHMARK = 14704900 TOTAL = 19989100 
CL = 6321500 BENCHMARK = 13358400 TOTAL = 19679900 
CL = 5950800 BENCHMARK = 13638400 TOTAL = 19589200 
CL = 6263000 BENCHMARK = 13883500 TOTAL = 20146500 
CL = 5603000 BENCHMARK = 13532700 TOTAL = 19135700 
CL = 5420700 BENCHMARK = 14511300 TOTAL = 19932000 
CL = 6641700 BENCHMARK = 13815100 TOTAL = 20456800 
CL = 5313600 BENCHMARK = 13679900 TOTAL = 18993500 
CL = 5694800 BENCHMARK = 13759300 TOTAL = 19454100 
CL = 5484000 BENCHMARK = 13845700 TOTAL = 19329700 
CL = 5735100 BENCHMARK = 13684100 TOTAL = 19419200 
CL = 6383500 BENCHMARK = 13535000 TOTAL = 19918500 
CL = 6460100 BENCHMARK = 13383200 TOTAL = 19843300 
CL = 6410000 BENCHMARK = 14174900 TOTAL = 20584900 
CL = 6580900 BENCHMARK = 13551600 TOTAL = 20132500 
CL = 6527000 BENCHMARK = 13844200 TOTAL = 20371200 
CL = 5989100 BENCHMARK = 13515600 TOTAL = 19504700 
CL = 6965700 BENCHMARK = 13875000 TOTAL = 20840700 
CL = 6014900 BENCHMARK = 14036300 TOTAL = 20051200 
CL = 5925900 BENCHMARK = 14054900 TOTAL = 19980800 
CL = 6712100 BENCHMARK = 14570100 TOTAL = 21282200 
