CL = 10047400 BENCHMARK = 8351800 TOTAL = 18399200 
CL = 11289600 BENCHMARK = 9344900 TOTAL = 20634500 
CL = 10510300 BENCHMARK = 8935200 TOTAL = 19445500 
CL = 11205600 BENCHMARK = 8271100 TOTAL = 19476700 
CL = 10123300 BENCHMARK = 8034800 TOTAL = 18158100 
CL = 10904000 BENCHMARK = 7869900 TOTAL = 18773900 
CL = 11054000 BENCHMARK = 8782600 TOTAL = 19836600 
CL = 10478400 BENCHMARK = 9597200 TOTAL = 20075600 
CL = 9994100 BENCHMARK = 7933800 TOTAL = 17927900 
CL = 10596600 BENCHMARK = 9087000 TOTAL = 19683600 
CL = 11194100 BENCHMARK = 7497500 TOTAL = 18691600 
CL = 11047900 BENCHMARK = 9652800 TOTAL = 20700700 
CL = 11387700 BENCHMARK = 8834000 TOTAL = 20221700 
CL = 11509300 BENCHMARK = 9313400 TOTAL = 20822700 
CL = 10649900 BENCHMARK = 8176000 TOTAL = 18825900 
CL = 11296200 BENCHMARK = 8979400 TOTAL = 20275600 
CL = 8068200 BENCHMARK = 7596100 TOTAL = 15664300 
CL = 9315100 BENCHMARK = 8422100 TOTAL = 17737200 
CL = 8083000 BENCHMARK = 9608600 TOTAL = 17691600 
CL = 8384100 BENCHMARK = 9295400 TOTAL = 17679500 
CL = 9344000 BENCHMARK = 9100900 TOTAL = 18444900 
CL = 9207700 BENCHMARK = 7627900 TOTAL = 16835600 
CL = 8054500 BENCHMARK = 7645300 TOTAL = 15699800 
CL = 8091200 BENCHMARK = 9170400 TOTAL = 17261600 
CL = 8160400 BENCHMARK = 8835100 TOTAL = 16995500 
CL = 8098200 BENCHMARK = 7820600 TOTAL = 15918800 
CL = 9331800 BENCHMARK = 7375200 TOTAL = 16707000 
CL = 8040400 BENCHMARK = 7451400 TOTAL = 15491800 
CL = 8073300 BENCHMARK = 9160500 TOTAL = 17233800 
CL = 8075300 BENCHMARK = 9078600 TOTAL = 17153900 
