CL = 6887700 BENCHMARK = 29633600 total = 36521300 
CL = 7054600 BENCHMARK = 30453100 total = 37507700 
CL = 6990600 BENCHMARK = 29717600 total = 36708200 
CL = 7238600 BENCHMARK = 29416500 total = 36655100 
CL = 7627400 BENCHMARK = 30056800 total = 37684200 
CL = 6935800 BENCHMARK = 29525100 total = 36460900 
CL = 7263400 BENCHMARK = 29907200 total = 37170600 
CL = 8088600 BENCHMARK = 29146600 total = 37235200 
CL = 8006200 BENCHMARK = 28976300 total = 36982500 
CL = 8092400 BENCHMARK = 29812400 total = 37904800 
CL = 8538400 BENCHMARK = 30012600 total = 38551000 
CL = 7719500 BENCHMARK = 31591900 total = 39311400 
CL = 8096600 BENCHMARK = 30542900 total = 38639500 
CL = 6940200 BENCHMARK = 29783500 total = 36723700 
CL = 6962300 BENCHMARK = 29137900 total = 36100200 
CL = 8698600 BENCHMARK = 26297800 total = 34996400 
CL = 6955400 BENCHMARK = 29574700 total = 36530100 
CL = 6902400 BENCHMARK = 29294100 total = 36196500 
CL = 6956400 BENCHMARK = 28076800 total = 35033200 
CL = 8345800 BENCHMARK = 29958300 total = 38304100 
CL = 6851100 BENCHMARK = 29239200 total = 36090300 
CL = 6933100 BENCHMARK = 30120600 total = 37053700 
CL = 6911300 BENCHMARK = 31087700 total = 37999000 
CL = 6858500 BENCHMARK = 29835700 total = 36694200 
CL = 6866500 BENCHMARK = 29056300 total = 35922800 
CL = 8595900 BENCHMARK = 30570200 total = 39166100 
CL = 6912400 BENCHMARK = 29718200 total = 36630600 
CL = 7030800 BENCHMARK = 29151700 total = 36182500 
CL = 8201500 BENCHMARK = 28475500 total = 36677000 
CL = 8209700 BENCHMARK = 28117600 total = 36327300 
