CL = 11939100 BENCHMARK = 13810600 total = 25749700 
CL = 12512800 BENCHMARK = 14537600 total = 27050400 
CL = 11991700 BENCHMARK = 13643100 total = 25634800 
CL = 11977100 BENCHMARK = 14004600 total = 25981700 
CL = 13520200 BENCHMARK = 13153300 total = 26673500 
CL = 13578500 BENCHMARK = 13905600 total = 27484100 
CL = 11781600 BENCHMARK = 13462200 total = 25243800 
CL = 11762900 BENCHMARK = 13642800 total = 25405700 
CL = 11977400 BENCHMARK = 12124700 total = 24102100 
CL = 12999100 BENCHMARK = 13334100 total = 26333200 
CL = 12766900 BENCHMARK = 14378200 total = 27145100 
CL = 11711100 BENCHMARK = 14156600 total = 25867700 
CL = 12221700 BENCHMARK = 14370900 total = 26592600 
CL = 11887600 BENCHMARK = 13470500 total = 25358100 
CL = 11611100 BENCHMARK = 14135000 total = 25746100 
CL = 11721400 BENCHMARK = 13582000 total = 25303400 
CL = 12986100 BENCHMARK = 13647300 total = 26633400 
CL = 13013200 BENCHMARK = 13289100 total = 26302300 
CL = 11867900 BENCHMARK = 12313200 total = 24181100 
CL = 13331200 BENCHMARK = 12808700 total = 26139900 
CL = 11924800 BENCHMARK = 12924600 total = 24849400 
CL = 13176200 BENCHMARK = 13260900 total = 26437100 
CL = 13144200 BENCHMARK = 13796000 total = 26940200 
CL = 11806900 BENCHMARK = 12551300 total = 24358200 
CL = 11773200 BENCHMARK = 11670100 total = 23443300 
CL = 11703300 BENCHMARK = 13408700 total = 25112000 
CL = 12118300 BENCHMARK = 14104200 total = 26222500 
CL = 12684800 BENCHMARK = 13205300 total = 25890100 
CL = 11361000 BENCHMARK = 12316200 total = 23677200 
CL = 13461600 BENCHMARK = 13451100 total = 26912700 
