CL = 8531800 BENCHMARK = 37326000 total = 45857800 
CL = 8384100 BENCHMARK = 30816600 total = 39200700 
CL = 8132300 BENCHMARK = 35559500 total = 43691800 
CL = 8580500 BENCHMARK = 32730700 total = 41311200 
CL = 7078100 BENCHMARK = 33951800 total = 41029900 
CL = 7126300 BENCHMARK = 27411700 total = 34538000 
CL = 8101300 BENCHMARK = 31093900 total = 39195200 
CL = 8556600 BENCHMARK = 29145900 total = 37702500 
CL = 7143000 BENCHMARK = 37136200 total = 44279200 
CL = 8340300 BENCHMARK = 36765900 total = 45106200 
CL = 8132800 BENCHMARK = 30695700 total = 38828500 
CL = 8546300 BENCHMARK = 28155700 total = 36702000 
CL = 8139100 BENCHMARK = 36514600 total = 44653700 
CL = 8337300 BENCHMARK = 32443200 total = 40780500 
CL = 8379200 BENCHMARK = 30674800 total = 39054000 
CL = 7179900 BENCHMARK = 25534900 total = 32714800 
CL = 8193300 BENCHMARK = 29970600 total = 38163900 
CL = 8084000 BENCHMARK = 31102800 total = 39186800 
CL = 8639000 BENCHMARK = 34488300 total = 43127300 
CL = 7931000 BENCHMARK = 28809400 total = 36740400 
CL = 8404800 BENCHMARK = 28316900 total = 36721700 
CL = 7256200 BENCHMARK = 31385000 total = 38641200 
CL = 7973600 BENCHMARK = 32614500 total = 40588100 
CL = 6839400 BENCHMARK = 32498800 total = 39338200 
CL = 7810700 BENCHMARK = 34345200 total = 42155900 
CL = 8137300 BENCHMARK = 33540000 total = 41677300 
CL = 8058500 BENCHMARK = 28120300 total = 36178800 
CL = 8360600 BENCHMARK = 33547300 total = 41907900 
CL = 8152600 BENCHMARK = 32844400 total = 40997000 
CL = 8428000 BENCHMARK = 26352100 total = 34780100 
